…
fireflies_data <- read_csv("https://whitlockschluter.zoology.ubc.ca/wp-content/data/chapter02/chap02q19FireflySpermatophoreMass.csv")
```

    ## 
    ## ── Column specification ────────────────────────────────────────────────────────
    ## cols(
    ##   spermatophoreMass = col_double()
    ## )

``` r
fireflies_data
```

    ## # A tibble: 35 x 1
    ##    spermatophoreMass
    ##                <dbl>
    ##  1             0.047
    ##  2             0.037
    ##  3             0.041
    ##  4             0.045
    ##  5             0.039
    ##  6             0.064
    ##  7             0.064
    ##  8             0.065
    ##  9             0.079
    ## 10             0.07 
    ## # … with 25 more rows

``` r
distinct(fireflies_data, spermatophoreMass)
```

    ## # A tibble: 26 x 1
    ##    spermatophoreMass
    ##                <dbl>
    ##  1             0.047
    ##  2             0.037
    ##  3             0.041
    ##  4             0.045
    ##  5             0.039
    ##  6             0.064
    ##  7             0.065
    ##  8             0.079
    ##  9             0.07 
    ## 10             0.066
    ## # … with 16 more rows

``` r
count(fireflies_data, spermatophoreMass)
```

    ## # A tibble: 26 x 2
    ##    spermatophoreMass     n
    ##  *             <dbl> <int>
    ##  1             0.037     1
    ##  2             0.039     1
    ##  3             0.041     1
    ##  4             0.045     1
    ##  5             0.046     1
    ##  6             0.047     1
    ##  7             0.048     2
    ##  8             0.055     1
    ##  9             0.056     1
    ## 10             0.059     1
    ## # … with 16 more rows
…
library(auk)                          # load the auk package
library(tidyverse)

# Birds -------------------------------------------------------------------

birds <- ebird_taxonomy %>%           # start with the ebird_taxonomy data
  as_tibble() %>%                     # tibbles print better in the console
  filter(category == "species")       # remove non-species taxa

birds
```

    ## # A tibble: 10,721 x 9
    ##    species_code scientific_name common_name order family family_common category
    ##    <chr>        <chr>           <chr>       <chr> <chr>  <chr>         <chr>   
    ##  1 ostric2      Struthio camel… Common Ost… Stru… Strut… Ostriches     species 
    ##  2 ostric3      Struthio molyb… Somali Ost… Stru… Strut… Ostriches     species 
    ##  3 grerhe1      Rhea americana  Greater Rh… Rhei… Rheid… Rheas         species 
    ##  4 lesrhe2      Rhea pennata    Lesser Rhea Rhei… Rheid… Rheas         species 
    ##  5 tabtin1      Nothocercus ju… Tawny-brea… Tina… Tinam… Tinamous      species 
    ##  6 higtin1      Nothocercus bo… Highland T… Tina… Tinam… Tinamous      species 
    ##  7 hootin1      Nothocercus ni… Hooded Tin… Tina… Tinam… Tinamous      species 
    ##  8 grytin1      Tinamus tao     Gray Tinam… Tina… Tinam… Tinamous      species 
    ##  9 soltin1      Tinamus solita… Solitary T… Tina… Tinam… Tinamous      species 
    ## 10 blatin1      Tinamus osgoodi Black Tina… Tina… Tinam… Tinamous      species 
    ## # … with 10,711 more rows, and 2 more variables: taxon_order <dbl>,
    ## #   report_as <chr>

``` r
distinct(birds,order)
```

    ## # A tibble: 41 x 1
    ##    order              
    ##    <chr>              
    ##  1 Struthioniformes   
    ##  2 Rheiformes         
    ##  3 Tinamiformes       
    ##  4 Casuariiformes     
    ##  5 Apterygiformes     
    ##  6 Anseriformes       
    ##  7 Galliformes        
    ##  8 Phoenicopteriformes
    ##  9 Podicipediformes   
    ## 10 Columbiformes      
    ## # … with 31 more rows

``` r
count(birds, order)
```

    ## # A tibble: 41 x 2
    ##    order                n
    ##  * <chr>            <int>
    ##  1 Accipitriformes    252
    ##  2 Anseriformes       178
    ##  3 Apterygiformes       5
    ##  4 Bucerotiformes      72
    ##  5 Caprimulgiformes   597
    ##  6 Cariamiformes        2
    ##  7 Casuariiformes       4
    ##  8 Cathartiformes       7
    ##  9 Charadriiformes    379
    ## 10 Ciconiiformes       19
    ## # … with 31 more rows
…
